tb_top_module.vcd
$date
	Wed Dec 31 07:51:58 2025
$end
$version
	Icarus Verilog
$end
$timescale
	1ps
$end
$scope module tb_top_module $end
$var wire 32 ! instr [31:0] $end
$var wire 32 " pc_current [31:0] $end
$var reg 1 # clk $end
$var integer 32 $ cycle [31:0] $end
$var integer 32 % errors [31:0] $end
$var reg 48 & inst_mnemonic [48:1] $end
$var reg 1 ' reset $end
$var integer 32 ( s0_val [31:0] $end
$var integer 32 ) s1_val [31:0] $end
$var integer 32 * s2_val [31:0] $end
$var integer 32 + s3_val [31:0] $end
$var integer 32 , s7_val [31:0] $end
$var integer 32 - t0_val [31:0] $end
$scope module dut $end
$var wire 1 . clk $end
$var wire 1 / reset $end
$var wire 3 0 w_alu_op_cu [2:0] $end
$var wire 3 1 w_alu_op_ex [2:0] $end
$var wire 3 2 w_alu_op_hz [2:0] $end
$var wire 32 3 w_alu_result [31:0] $end
$var wire 32 4 w_alu_result_mem [31:0] $end
$var wire 32 5 w_alu_result_wb [31:0] $end
$var wire 1 6 w_alu_src_cu $end
$var wire 1 7 w_alu_src_ex $end
$var wire 1 8 w_alu_src_hz $end
$var wire 1 9 w_branch_cu $end
$var wire 1 : w_branch_taken $end
$var wire 1 ; w_equal $end
$var wire 1 < w_flush $end
$var wire 2 = w_forwardA [1:0] $end
$var wire 2 > w_forwardB [1:0] $end
$var wire 2 ? w_forwardC [1:0] $end
$var wire 2 @ w_forwardD [1:0] $end
$var wire 1 A w_ifid_stall $end
$var wire 16 B w_imm16 [15:0] $end
$var wire 32 C w_imm32 [31:0] $end
$var wire 32 D w_imm32_ex [31:0] $end
$var wire 32 E w_instr_id [31:0] $end
$var wire 32 F w_instr_if [31:0] $end
$var wire 1 G w_jump_cu $end
$var wire 1 H w_mem_read_cu $end
$var wire 32 I w_mem_read_data [31:0] $end
$var wire 1 J w_mem_read_ex $end
$var wire 1 K w_mem_read_hz $end
$var wire 1 L w_mem_read_mem $end
$var wire 1 M w_mem_to_reg_cu $end
$var wire 1 N w_mem_to_reg_ex $end
$var wire 1 O w_mem_to_reg_hz $end
$var wire 1 P w_mem_to_reg_mem $end
$var wire 1 Q w_mem_to_reg_wb $end
$var wire 1 R w_mem_write_cu $end
$var wire 1 S w_mem_write_ex $end
$var wire 1 T w_mem_write_hz $end
$var wire 1 U w_mem_write_mem $end
$var wire 1 V w_mux_control_hazard $end
$var wire 6 W w_opcode [5:0] $end
$var wire 32 X w_pc_cur [31:0] $end
$var wire 32 Y w_pc_decode [31:0] $end
$var wire 32 Z w_pc_in [31:0] $end
$var wire 32 [ w_pc_next_id [31:0] $end
$var wire 32 \ w_pc_next_if [31:0] $end
$var wire 1 ] w_pc_src $end
$var wire 1 ^ w_pc_stall $end
$var wire 5 _ w_rd [4:0] $end
$var wire 32 ` w_rd1 [31:0] $end
$var wire 32 a w_rd1_ex [31:0] $end
$var wire 32 b w_rd2 [31:0] $end
$var wire 32 c w_rd2_ex [31:0] $end
$var wire 5 d w_rd_ex [4:0] $end
$var wire 32 e w_read_data_wb [31:0] $end
$var wire 1 f w_reg_dst_cu $end
$var wire 1 g w_reg_dst_ex $end
$var wire 1 h w_reg_dst_hz $end
$var wire 1 i w_reg_write_cu $end
$var wire 1 j w_reg_write_ex $end
$var wire 1 k w_reg_write_hz $end
$var wire 1 l w_reg_write_mem $end
$var wire 1 m w_reg_write_wb $end
$var wire 5 n w_rs [4:0] $end
$var wire 5 o w_rs_ex [4:0] $end
$var wire 5 p w_rt [4:0] $end
$var wire 5 q w_rt_ex [4:0] $end
$var wire 32 r w_wb_write_data [31:0] $end
$var wire 32 s w_write_data_ex [31:0] $end
$var wire 32 t w_write_data_mem [31:0] $end
$var wire 5 u w_write_reg_ex [4:0] $end
$var wire 5 v w_write_reg_mem [4:0] $end
$var wire 5 w w_write_reg_wb [4:0] $end
$scope module mux_pc_unit $end
$var wire 32 x pc [31:0] $end
$var wire 32 y pc_decode [31:0] $end
$var wire 32 z pc_next [31:0] $end
$var wire 1 ] pc_src $end
$upscope $end
$scope module pc_unit $end
$var wire 1 . clk $end
$var wire 32 { pc [31:0] $end
$var wire 1 / reset $end
$var wire 1 ^ stall $end
$var reg 32 | PC_pc [31:0] $end
$upscope $end
$scope module pc_add_4 $end
$var wire 32 } PC_pc [31:0] $end
$var reg 32 ~ pc_next [31:0] $end
$upscope $end
$scope module instr_mem $end
$var wire 32 !" PC_pc [31:0] $end
$var wire 32 "" instruction [31:0] $end
$upscope $end
$scope module if_id_reg $end
$var wire 1 . clk $end
$var wire 1 < flush $end
$var wire 32 #" instruction_in [31:0] $end
$var wire 32 $" pc_next_in [31:0] $end
$var wire 1 / reset $end
$var wire 1 A stall $end
$var reg 32 %" instruction [31:0] $end
$var reg 32 &" pc_next [31:0] $end
$upscope $end
$scope module big_register $end
$var wire 32 '" EX_MEM_value [31:0] $end
$var wire 32 (" MEM_WB_value [31:0] $end
$var wire 1 . clk $end
$var wire 1 ; equal_after_forward $end
$var wire 2 )" forwardC [1:0] $end
$var wire 2 *" forwardD [1:0] $end
$var wire 32 +" id_op_a [31:0] $end
$var wire 32 ," id_op_b [31:0] $end
$var wire 1 m reg_write_in $end
$var wire 1 / reset $end
$var wire 1 -" rf_equal $end
$var wire 32 ." rf_rd1 [31:0] $end
$var wire 32 /" rf_rd2 [31:0] $end
$var wire 5 0" rs_addr [4:0] $end
$var wire 5 1" rt_addr [4:0] $end
$var wire 5 2" write_addr [4:0] $end
$var wire 32 3" write_data [31:0] $end
$scope module u_rf $end
$var wire 1 . clk $end
$var wire 1 -" equal $end
$var wire 1 m reg_write_in $end
$var wire 1 / reset $end
$var wire 5 4" rs_addr [4:0] $end
$var wire 5 5" rt_addr [4:0] $end
$var wire 5 6" write_addr [4:0] $end
$var wire 32 7" write_data [31:0] $end
$var integer 32 8" i [31:0] $end
$var reg 32 9" read_data_1 [31:0] $end
$var reg 32 :" read_data_2 [31:0] $end
$upscope $end
$upscope $end
$scope module control_unit $end
$var wire 6 ;" opcode [5:0] $end
$var reg 3 <" alu_op [2:0] $end
$var reg 1 =" alu_src $end
$var reg 1 >" branch $end
$var reg 1 ?" jump $end
$var reg 1 @" mem_read $end
$var reg 1 A" mem_to_reg $end
$var reg 1 B" mem_write $end
$var reg 1 C" pc_src $end
$var reg 1 D" reg_dst $end
$var reg 1 E" reg_write $end
$upscope $end
$scope module flush_control $end
$var wire 1 9 branch_flag $end
$var wire 1 < flush $end
$var wire 1 G jump $end
$var wire 1 ; reg_equal_flag $end
$upscope $end
$scope module top_decode_addr $end
$var wire 1 9 branch $end
$var wire 32 F" branch_addr [31:0] $end
$var wire 32 G" instruction [31:0] $end
$var wire 1 G jump $end
$var wire 32 H" jump_addr [31:0] $end
$var wire 32 I" pc_decode [31:0] $end
$var wire 32 J" pc_next [31:0] $end
$scope module u_branch_addr $end
$var wire 16 K" address [15:0] $end
$var wire 32 L" branch_addr [31:0] $end
$var wire 32 M" pc_next [31:0] $end
$var wire 32 N" signext_imm [31:0] $end
$upscope $end
$scope module u_jump_addr $end
$var wire 26 O" address [25:0] $end
$var wire 32 P" jump_addr [31:0] $end
$var wire 32 Q" pc_next [31:0] $end
$upscope $end
$scope module u_mux_pc_decode $end
$var wire 1 9 branch $end
$var wire 32 R" branch_addr [31:0] $end
$var wire 1 G jump $end
$var wire 32 S" jump_addr [31:0] $end
$var wire 32 T" pc_decode [31:0] $end
$var wire 32 U" pc_next [31:0] $end
$upscope $end
$upscope $end
$scope module signextend $end
$var wire 16 V" in [15:0] $end
$var wire 32 W" out [31:0] $end
$upscope $end
$scope module data_hazard_detection_unit $end
$var wire 1 J ID_EX_mem_read $end
$var wire 5 X" ID_EX_rd [4:0] $end
$var wire 5 Y" ID_EX_rt [4:0] $end
$var wire 5 Z" IF_ID_rs [4:0] $end
$var wire 5 [" IF_ID_rt [4:0] $end
$var wire 1 9 branch $end
$var wire 1 j reg_write $end
$var reg 1 \" IF_ID_stall $end
$var reg 1 ]" mux_control_hazard $end
$var reg 1 ^" pc_stall $end
$upscope $end
$scope module mux_hazard_control $end
$var wire 3 _" alu_op [2:0] $end
$var wire 3 `" alu_op_in [2:0] $end
$var wire 1 8 alu_src $end
$var wire 1 6 alu_src_in $end
$var wire 1 K mem_read $end
$var wire 1 H mem_read_in $end
$var wire 1 O mem_to_reg $end
$var wire 1 M mem_to_reg_in $end
$var wire 1 T mem_write $end
$var wire 1 R mem_write_in $end
$var wire 1 h reg_dst $end
$var wire 1 f reg_dst_in $end
$var wire 1 k reg_write $end
$var wire 1 i reg_write_in $end
$var wire 1 V stall $end
$upscope $end
$scope module id_ex_reg $end
$var wire 3 a" alu_op_in [2:0] $end
$var wire 1 8 alu_src_in $end
$var wire 1 . clk $end
$var wire 32 b" ins_15_0_in [31:0] $end
$var wire 1 K mem_read_in $end
$var wire 1 O mem_to_reg_in $end
$var wire 1 T mem_write_in $end
$var wire 5 c" rd_in [4:0] $end
$var wire 32 d" read_data_1_in [31:0] $end
$var wire 32 e" read_data_2_in [31:0] $end
$var wire 1 h reg_dst_in $end
$var wire 1 k reg_write_in $end
$var wire 1 / reset $end
$var wire 5 f" rs_in [4:0] $end
$var wire 5 g" rt_in [4:0] $end
$var reg 3 h" alu_op [2:0] $end
$var reg 1 i" alu_src $end
$var reg 32 j" ins_15_0 [31:0] $end
$var reg 1 k" mem_read $end
$var reg 1 l" mem_to_reg $end
$var reg 1 m" mem_write $end
$var reg 5 n" rd [4:0] $end
$var reg 32 o" read_data_1 [31:0] $end
$var reg 32 p" read_data_2 [31:0] $end
$var reg 1 q" reg_dst $end
$var reg 1 r" reg_write $end
$var reg 5 s" rs [4:0] $end
$var reg 5 t" rt [4:0] $end
$upscope $end
$scope module forwarding_unit_data_hazard $end
$var wire 5 u" EX_MEM_rd [4:0] $end
$var wire 1 l EX_MEM_reg_write $end
$var wire 5 v" ID_EX_rs [4:0] $end
$var wire 5 w" ID_EX_rt [4:0] $end
$var wire 5 x" MEM_WB_rd [4:0] $end
$var wire 1 m MEM_WB_reg_write $end
$var reg 2 y" forwardA [1:0] $end
$var reg 2 z" forwardB [1:0] $end
$upscope $end
$scope module forwarding_unit_control_hazard $end
$var wire 5 {" EX_MEM_rd [4:0] $end
$var wire 1 l EX_MEM_reg_write $end
$var wire 5 |" IF_ID_rs [4:0] $end
$var wire 5 }" IF_ID_rt [4:0] $end
$var wire 5 ~" MEM_WB_rd [4:0] $end
$var wire 1 m MEM_WB_reg_write $end
$var reg 2 !# forwardC [1:0] $end
$var reg 2 "# forwardD [1:0] $end
$upscope $end
$scope module alu_big_module $end
$var wire 32 ## EX_MEM_alu_result [31:0] $end
$var wire 2 $# ForwardA [1:0] $end
$var wire 2 %# ForwardB [1:0] $end
$var wire 32 &# MEM_WB_read_data [31:0] $end
$var wire 32 '# alu_in_a [31:0] $end
$var wire 32 (# alu_in_b [31:0] $end
$var wire 3 )# alu_op [2:0] $end
$var wire 32 *# alu_result [31:0] $end
$var wire 3 +# alu_sel_internal [2:0] $end
$var wire 1 7 alu_src $end
$var wire 32 ,# forward_b_out [31:0] $end
$var wire 32 -# ins_15_0 [31:0] $end
$var wire 32 .# read_data_1 [31:0] $end
$var wire 32 /# read_data_2 [31:0] $end
$var wire 32 0# write_data [31:0] $end
$scope module u_alu_ctrl $end
$var wire 3 1# ALU_Op [2:0] $end
$var wire 6 2# Funct [5:0] $end
$var reg 3 3# ALU_Sel [2:0] $end
$upscope $end
$scope module u_alu $end
$var wire 32 4# ALU_In_0 [31:0] $end
$var wire 32 5# ALU_In_1 [31:0] $end
$var wire 3 6# ALU_Sel [2:0] $end
$var reg 32 7# ALU_Out [31:0] $end
$upscope $end
$upscope $end
$scope module mux_reg_dst $end
$var wire 5 8# final_write_reg [4:0] $end
$var wire 5 9# rd [4:0] $end
$var wire 1 g reg_dst $end
$var wire 5 :# rt [4:0] $end
$upscope $end
$scope module ex_mem_register $end
$var wire 32 ;# alu_result_in [31:0] $end
$var wire 1 . clk $end
$var wire 1 J mem_read_in $end
$var wire 1 N mem_to_reg_in $end
$var wire 1 S mem_write_in $end
$var wire 1 j reg_write_in $end
$var wire 1 / reset $end
$var wire 32 <# write_data_in [31:0] $end
$var wire 5 =# write_reg_addr_in [4:0] $end
$var reg 32 ># alu_result [31:0] $end
$var reg 1 ?# mem_read $end
$var reg 1 @# mem_to_reg $end
$var reg 1 A# mem_write $end
$var reg 1 B# reg_write $end
$var reg 32 C# write_data [31:0] $end
$var reg 5 D# write_reg_addr [4:0] $end
$upscope $end
$scope module data_memory $end
$var wire 32 E# address [31:0] $end
$var wire 1 . clk $end
$var wire 1 L mem_read $end
$var wire 1 U mem_write $end
$var wire 32 F# read_data [31:0] $end
$var wire 1 / reset $end
$var wire 32 G# write_data [31:0] $end
$upscope $end
$scope module mem_wb_register $end
$var wire 32 H# alu_result_in [31:0] $end
$var wire 1 . clk $end
$var wire 1 P mem_to_reg_in $end
$var wire 32 I# read_data_in [31:0] $end
$var wire 1 l reg_write_in $end
$var wire 1 / reset $end
$var wire 5 J# write_reg_addr_in [4:0] $end
$var reg 32 K# alu_result [31:0] $end
$var reg 1 L# mem_to_reg $end
$var reg 32 M# read_data [31:0] $end
$var reg 1 N# reg_write $end
$var reg 5 O# write_reg_addr [4:0] $end
$upscope $end
$scope module mux_wb $end
$var wire 32 P# alu_result [31:0] $end
$var wire 32 Q# final_write_data [31:0] $end
$var wire 1 Q mem_to_reg $end
$var wire 32 R# read_data [31:0] $end
$upscope $end
$upscope $end
$scope task write_imem $end
$var integer 32 S# addr [31:0] $end
$var reg 32 T# val [31:0] $end
$upscope $end
$upscope $end
$enddefinitions $end
#0
$dumpvars
b100000000101110000001100001001 T#
b101000 S#
b0 R#
b0 Q#
b0 P#
b0 O#
0N#
b0 M#
0L#
b0 K#
b0 J#
b0 I#
b0 H#
b0 G#
b0 F#
b0 E#
b0 D#
b0 C#
0B#
0A#
0@#
0?#
b0 >#
b0 =#
b0 <#
b0 ;#
b0 :#
b0 9#
b0 8#
b0 7#
b0 6#
b0 5#
b0 4#
b0 3#
b0 2#
b0 1#
b0 0#
b0 /#
b0 .#
b0 -#
b0 ,#
b0 +#
b0 *#
b0 )#
b0 (#
b0 '#
b0 &#
b0 %#
b0 $#
b0 ##
b0 "#
b0 !#
b0 ~"
b0 }"
b0 |"
b0 {"
b0 z"
b0 y"
b0 x"
b0 w"
b0 v"
b0 u"
b0 t"
b0 s"
0r"
0q"
b0 p"
b0 o"
b0 n"
0m"
0l"
0k"
b0 j"
0i"
b0 h"
b0 g"
b0 f"
b0 e"
b0 d"
b0 c"
b0 b"
b10 a"
b10 `"
b10 _"
0^"
0]"
0\"
b0 ["
b0 Z"
b0 Y"
b0 X"
b0 W"
b0 V"
b0 U"
b0 T"
b0 S"
b0 R"
b0 Q"
b0 P"
b0 O"
b0 N"
b0 M"
b0 L"
b0 K"
b0 J"
b0 I"
b0 H"
b0 G"
b0 F"
1E"
1D"
xC"
0B"
0A"
0@"
0?"
0>"
0="
b10 <"
b0 ;"
b0 :"
b0 9"
bx 8"
b0 7"
b0 6"
b0 5"
b0 4"
b0 3"
b0 2"
b0 1"
b0 0"
b0 /"
b0 ."
1-"
b0 ,"
b0 +"
b0 *"
b0 )"
b0 ("
b0 '"
b0 &"
b0 %"
b100 $"
b100000000100000000000000000001 #"
b100000000100000000000000000001 ""
b0 !"
b100 ~
b0 }
b0 |
b100 {
b100 z
b0 y
b100 x
b0 w
b0 v
b0 u
b0 t
b0 s
b0 r
b0 q
b0 p
b0 o
b0 n
0m
0l
1k
0j
1i
1h
0g
1f
b0 e
b0 d
b0 c
b0 b
b0 a
b0 `
b0 _
0^
0]
b100 \
b0 [
b100 Z
b0 Y
b0 X
b0 W
0V
0U
0T
0S
0R
0Q
0P
0O
0N
0M
0L
0K
0J
b0 I
0H
0G
b100000000100000000000000000001 F
b0 E
b0 D
b0 C
b0 B
0A
b0 @
b0 ?
b0 >
b0 =
0<
1;
0:
09
08
07
06
b0 5
b0 4
b0 3
b10 2
b0 1
b10 0
1/
0.
bx -
bx ,
bx +
bx *
bx )
bx (
1'
b10000010100010001000100010010010010000000100000 &
b0 %
b0 $
0#
b0 "
b100000000100000000000000000001 !
$end
#10000
0'
0/
#15000
18
b0 2
b0 _"
b0 a"
0h
1="
16
b0 <"
b0 0
b0 `"
0D"
0f
1E"
1i
b100 Y
b100 y
b100 I"
b100 T"
b1000 Z
b1000 x
b1000 {
b1 K"
b1 N"
b100000000000000000001 O"
b10000000000000000000100 H"
b10000000000000000000100 P"
b10000000000000000000100 S"
b1 C
b1 W"
b1 b"
b1 B
b1 V"
b10000 p
b10000 1"
b10000 5"
b10000 ["
b10000 g"
b10000 }"
b1000 W
b1000 ;"
b1000 ~
b1000 \
b1000 z
b1000 $"
1r"
1j
b10 h"
b10 1
b10 )#
b10 1#
1q"
1g
b100000000100000000000000000001 %"
b100000000100000000000000000001 E
b100000000100000000000000000001 G"
b100 &"
b1000 F"
b1000 L"
b1000 R"
b100 [
b100 J"
b100 M"
b100 Q"
b100 U"
b100 |
b100000000100010000000000000000 F
b100000000100010000000000000000 ""
b100000000100010000000000000000 #"
b100000000100010000000000000000 !
b100 X
b100 }
b100 !"
b100 "
1#
1.
#20000
x;
bx b
bx ,"
bx e"
bx :"
x-"
bx /"
b1 $
0#
0.
#25000
b1100 Z
b1100 x
b1100 {
b1000 Y
b1000 y
b1000 I"
b1000 T"
bx ,#
bx s
bx 0#
bx <#
b1 7#
b1 3
b1 *#
b1 ;#
b1100 ~
b1100 \
b1100 z
b1100 $"
b0 K"
b0 N"
b100010000000000000000 O"
b10001000000000000000000 H"
b10001000000000000000000 P"
b10001000000000000000000 S"
b0 C
b0 W"
b0 b"
b0 B
b0 V"
b10001 p
b10001 1"
b10001 5"
b10001 ["
b10001 g"
b10001 }"
b1 2#
b1 (#
b1 5#
b10000 u
b10000 X"
b10000 8#
b10000 =#
b1000 |
b100000000100100000000000001010 F
b100000000100100000000000001010 ""
b100000000100100000000000001010 #"
b100000000100100000000000001010 !
b1000 X
b1000 }
b1000 !"
b1000 "
b100000000100010000000000000000 %"
b100000000100010000000000000000 E
b100000000100010000000000000000 G"
b1000 &"
b1000 F"
b1000 L"
b1000 R"
b1000 [
b1000 J"
b1000 M"
b1000 Q"
b1000 U"
b10000 t"
b10000 q
b10000 Y"
b10000 w"
b10000 :#
b1 j"
b1 D
b1 -#
bx p"
bx c
bx /#
1i"
17
b0 h"
b0 1
b0 )#
b0 1#
0q"
0g
1B#
1l
1#
1.
#30000
b10 $
0#
0.
#35000
b0 7#
b0 3
b0 *#
b0 ;#
b1100 Y
b1100 y
b1100 I"
b1100 T"
b10000 Z
b10000 x
b10000 {
b10001 u
b10001 X"
b10001 8#
b10001 =#
b0 (#
b0 5#
b0 2#
b1010 K"
b1010 N"
b100100000000000001010 O"
b10010000000000000101000 H"
b10010000000000000101000 P"
b10010000000000000101000 S"
b1010 C
b1010 W"
b1010 b"
b1010 B
b1010 V"
b10010 p
b10010 1"
b10010 5"
b10010 ["
b10010 g"
b10010 }"
b10000 ~
b10000 \
b10000 z
b10000 $"
1N#
1m
b10000 D#
b10000 v
b10000 u"
b10000 {"
b10000 J#
bx C#
bx t
bx G#
b1 >#
b1 4
b1 '"
b1 ##
b1 E#
b1 H#
b10001 t"
b10001 q
b10001 Y"
b10001 w"
b10001 :#
b0 j"
b0 D
b0 -#
b100000000100100000000000001010 %"
b100000000100100000000000001010 E
b100000000100100000000000001010 G"
b1100 &"
b110100 F"
b110100 L"
b110100 R"
b1100 [
b1100 J"
b1100 M"
b1100 Q"
b1100 U"
b1100 |
b100000000100110000000000110111 F
b100000000100110000000000110111 ""
b100000000100110000000000110111 #"
b100000000100110000000000110111 !
b1100 X
b1100 }
b1100 !"
b1100 "
1#
1.
#40000
b11 $
0#
0.
#45000
b10100 Z
b10100 x
b10100 {
b10000 Y
b10000 y
b10000 I"
b10000 T"
b1010 7#
b1010 3
b1010 *#
b1010 ;#
b10000010100010001000100001000000010000000100000 &
b10100 ~
b10100 \
b10100 z
b10100 $"
b110111 K"
b110111 N"
b100110000000000110111 O"
b10011000000000011011100 H"
b10011000000000011011100 P"
b10011000000000011011100 S"
b110111 C
b110111 W"
b110111 b"
b110111 B
b110111 V"
b10011 p
b10011 1"
b10011 5"
b10011 ["
b10011 g"
b10011 }"
b10010 u
b10010 X"
b10010 8#
b10010 =#
b1010 (#
b1010 5#
b1010 2#
b1 r
b1 ("
b1 3"
b1 7"
b1 &#
b1 Q#
b10000 |
b10001100001000100000100000 F
b10001100001000100000100000 ""
b10001100001000100000100000 #"
b10001100001000100000100000 !
b10000 X
b10000 }
b10000 !"
b10000 "
b100000000100110000000000110111 %"
b100000000100110000000000110111 E
b100000000100110000000000110111 G"
b10000 &"
b11101100 F"
b11101100 L"
b11101100 R"
b10000 [
b10000 J"
b10000 M"
b10000 Q"
b10000 U"
b10010 t"
b10010 q
b10010 Y"
b10010 w"
b10010 :#
b1010 j"
b1010 D
b1010 -#
b10001 D#
b10001 v
b10001 u"
b10001 {"
b10001 J#
b0 >#
b0 4
b0 '"
b0 ##
b0 E#
b0 H#
b10000 O#
b10000 w
b10000 2"
b10000 6"
b10000 x"
b10000 ~"
b1 K#
b1 5
b1 P#
1#
1.
#50000
b100 $
0#
0.
#55000
b10 2
b10 _"
b10 a"
1h
08
b110111 7#
b110111 3
b110111 *#
b110111 ;#
b10 <"
b10 0
b10 `"
1D"
1f
0="
06
1E"
1i
b10100 Y
b10100 y
b10100 I"
b10100 T"
b11000 Z
b11000 x
b11000 {
b0 r
b0 ("
b0 3"
b0 7"
b0 &#
b0 Q#
b1 !#
b1 ?
b1 )"
b10011 u
b10011 X"
b10011 8#
b10011 =#
b110111 (#
b110111 5#
b110111 2#
b1000100000100000 K"
b11111111111111111000100000100000 N"
b10001100001000100000100000 O"
b1000110000100010000010000000 H"
b1000110000100010000010000000 P"
b1000110000100010000010000000 S"
b11111111111111111000100000100000 C
b11111111111111111000100000100000 W"
b11111111111111111000100000100000 b"
b1000100000100000 B
b1000100000100000 V"
b10001 _
b10001 c"
b10000 p
b10000 1"
b10000 5"
b10000 ["
b10000 g"
b10000 }"
b10001 n
b10001 0"
b10001 4"
b10001 Z"
b10001 f"
b10001 |"
b0 W
b0 ;"
b10000100100010101010001001000000010000000100000 &
b11000 ~
b11000 \
b11000 z
b11000 $"
b10001 O#
b10001 w
b10001 2"
b10001 6"
b10001 x"
b10001 ~"
b0 K#
b0 5
b0 P#
b10010 D#
b10010 v
b10010 u"
b10010 {"
b10010 J#
b1010 >#
b1010 4
b1010 '"
b1010 ##
b1010 E#
b1010 H#
b10011 t"
b10011 q
b10011 Y"
b10011 w"
b10011 :#
b110111 j"
b110111 D
b110111 -#
b10001100001000100000100000 %"
b10001100001000100000100000 E
b10001100001000100000100000 G"
b10100 &"
b11111111111111100010000010010100 F"
b11111111111111100010000010010100 L"
b11111111111111100010000010010100 R"
b10100 [
b10100 J"
b10100 M"
b10100 Q"
b10100 U"
b10100 |
b10010000100100000000000000010 F
b10010000100100000000000000010 ""
b10010000100100000000000000010 #"
b10010000100100000000000000010 !
b10100 X
b10100 }
b10100 !"
b10100 "
1#
1.
#60000
0;
b1 b
b1 ,"
b1 e"
b1 :"
b1 /"
bx 9"
bx ."
b1 (
b101 $
0#
0.
#65000
b1010 b
b1010 ,"
b1010 e"
x<
x]
x:
b0 2
b0 _"
b0 a"
0h
0k
x;
bx `
bx +"
bx d"
b0xxxx00 Z
b0xxxx00 x
b0xxxx00 {
b1 "#
b1 @
b1 *"
1>"
19
b0 <"
b0 0
b0 `"
0D"
0f
0E"
0i
b100000 Y
b100000 y
b100000 I"
b100000 T"
b1 ,#
b1 s
b1 0#
b1 <#
b1 7#
b1 3
b1 *#
b1 ;#
b10000010100010001000100010010010010000000100000 &
b11100 ~
b11100 \
b11100 z
b11100 $"
b10 K"
b10 N"
b10000100100000000000000010 O"
b1000010010000000000000001000 H"
b1000010010000000000000001000 P"
b1000010010000000000000001000 S"
b10 C
b10 W"
b10 b"
b10 B
b10 V"
b0 _
b0 c"
b10010 p
b10010 1"
b10010 5"
b10010 ["
b10010 g"
b10010 }"
b10000 n
b10000 0"
b10000 4"
b10000 Z"
b10000 f"
b10000 |"
b100 W
b100 ;"
b100000 2#
b1 (#
b1 5#
b10001 u
b10001 X"
b10001 8#
b10001 =#
b0 !#
b0 ?
b0 )"
b1010 r
b1010 ("
b1010 3"
b1010 7"
b1010 &#
b1010 Q#
b11000 |
b100010000100000000000000000001 F
b100010000100000000000000000001 ""
b100010000100000000000000000001 #"
b100010000100000000000000000001 !
b11000 X
b11000 }
b11000 !"
b11000 "
b10010000100100000000000000010 %"
b10010000100100000000000000010 E
b10010000100100000000000000010 G"
b11000 &"
b100000 F"
b100000 L"
b100000 R"
b11000 [
b11000 J"
b11000 M"
b11000 Q"
b11000 U"
b10001 n"
b10001 d
b10001 9#
b10000 t"
b10000 q
b10000 Y"
b10000 w"
b10000 :#
b10001 s"
b10001 o
b10001 v"
b11111111111111111000100000100000 j"
b11111111111111111000100000100000 D
b11111111111111111000100000100000 -#
b1 p"
b1 c
b1 /#
0i"
07
b10 h"
b10 1
b10 )#
b10 1#
1q"
1g
b10011 D#
b10011 v
b10011 u"
b10011 {"
b10011 J#
b110111 >#
b110111 4
b110111 '"
b110111 ##
b110111 E#
b110111 H#
b10010 O#
b10010 w
b10010 2"
b10010 6"
b10010 x"
b10010 ~"
b1010 K#
b1010 5
b1010 P#
1#
1.
#70000
b11100 Z
b11100 x
b11100 {
0<
0]
0:
0;
b1 `
b1 +"
b1 d"
bx :"
bx /"
b1 9"
x-"
b1 ."
b0 )
b110 $
0#
0.
#75000
x;
bx b
bx ,"
bx e"
b1010 (#
b1010 5#
b1011 7#
b1011 3
b1011 *#
b1011 ;#
1k
18
b1010 ,#
b1010 s
b1010 0#
b1010 <#
b1 '#
b1 4#
1E"
1i
1="
16
0>"
09
b11100 Y
b11100 y
b11100 I"
b11100 T"
b100000 Z
b100000 x
b100000 {
b110111 r
b110111 ("
b110111 3"
b110111 7"
b110111 &#
b110111 Q#
b0 "#
b0 @
b0 *"
b10 2#
b10010 u
b10010 X"
b10010 8#
b10010 =#
b1 K"
b1 N"
b10000100000000000000000001 O"
b1000010000000000000000000100 H"
b1000010000000000000000000100 P"
b1000010000000000000000000100 S"
b1 C
b1 W"
b1 b"
b1 B
b1 V"
b10000 p
b10000 1"
b10000 5"
b10000 ["
b10000 g"
b10000 }"
b1000 W
b1000 ;"
b10010100010000000100000001000000010000000100000 &
b100000 ~
b100000 \
b100000 z
b100000 $"
b10011 O#
b10011 w
b10011 2"
b10011 6"
b10011 x"
b10011 ~"
b110111 K#
b110111 5
b110111 P#
b10001 D#
b10001 v
b10001 u"
b10001 {"
b10001 J#
b1 C#
b1 t
b1 G#
b1 >#
b1 4
b1 '"
b1 ##
b1 E#
b1 H#
b0 n"
b0 d
b0 9#
b10010 t"
b10010 q
b10010 Y"
b10010 w"
b10010 :#
b10000 s"
b10000 o
b10000 v"
b10 j"
b10 D
b10 -#
b1010 p"
b1010 c
b1010 /#
b1 o"
b1 a
b1 .#
0r"
0j
b0 h"
b0 1
b0 )#
b0 1#
0q"
0g
b100010000100000000000000000001 %"
b100010000100000000000000000001 E
b100010000100000000000000000001 G"
b11100 &"
b100000 F"
b100000 L"
b100000 R"
b11100 [
b11100 J"
b11100 M"
b11100 Q"
b11100 U"
b11100 |
b1000000000000000000000000100 F
b1000000000000000000000000100 ""
b1000000000000000000000000100 #"
b1000000000000000000000000100 !
b11100 X
b11100 }
b11100 !"
b11100 "
1#
1.
#80000
1;
b1 b
b1 ,"
b1 e"
b1 :"
1-"
b1 /"
b1010 *
b111 $
0#
0.
#85000
1<
1]
08
0k
b10000 Z
b10000 x
b10000 {
1?"
1G
0="
06
0E"
0i
b10000 Y
b10000 y
b10000 I"
b10000 T"
b1 ,#
b1 s
b1 0#
b1 <#
b10 7#
b10 3
b10 *#
b10 ;#
b10000100100010101010001001000000010000000100000 &
b100100 ~
b100100 \
b100100 z
b100100 $"
b100 K"
b100 N"
b100 O"
b10000 H"
b10000 P"
b10000 S"
b100 C
b100 W"
b100 b"
b100 B
b100 V"
b0 p
b0 1"
b0 5"
b0 ["
b0 g"
b0 }"
b0 n
b0 0"
b0 4"
b0 Z"
b0 f"
b0 |"
b10 W
b10 ;"
b10000 u
b10000 X"
b10000 8#
b10000 =#
b1 2#
b1 (#
b1 5#
b1 r
b1 ("
b1 3"
b1 7"
b1 &#
b1 Q#
b100000 |
b10010001100110000000000000001 F
b10010001100110000000000000001 ""
b10010001100110000000000000001 #"
b10010001100110000000000000001 !
b100000 X
b100000 }
b100000 !"
b100000 "
b1000000000000000000000000100 %"
b1000000000000000000000000100 E
b1000000000000000000000000100 G"
b100000 &"
b110000 F"
b110000 L"
b110000 R"
b100000 [
b100000 J"
b100000 M"
b100000 Q"
b100000 U"
b10000 t"
b10000 q
b10000 Y"
b10000 w"
b10000 :#
b1 j"
b1 D
b1 -#
b1 p"
b1 c
b1 /#
1r"
1j
1i"
17
b10010 D#
b10010 v
b10010 u"
b10010 {"
b10010 J#
b1010 C#
b1010 t
b1010 G#
b1011 >#
b1011 4
b1011 '"
b1011 ##
b1011 E#
b1011 H#
0B#
0l
b10001 O#
b10001 w
b10001 2"
b10001 6"
b10001 x"
b10001 ~"
b1 K#
b1 5
b1 P#
1#
1.
#90000
b0 b
b0 ,"
b0 e"
1;
b0 `
b0 +"
b0 d"
b0 :"
b0 /"
b0 9"
1-"
b0 ."
b110111 +
b1000 $
0#
0.
